This is pBibTeX, Version 0.99d-j0.34 (utf8.euc) (TeX Live 2022)
Capacity: max_strings=200000, hash_size=200000, hash_prime=170003
The top-level auxiliary file: Analysis_note.aux
The style file: jplain.bst
Database file #1: sample.bib
You've used 1 entry,
            2620 wiz_defined-function locations,
            600 strings with 4641 characters,
and the built_in function-call counts, 322 in all, are:
= -- 22
> -- 7
< -- 1
+ -- 3
- -- 2
* -- 19
:= -- 50
add.period$ -- 3
call.type$ -- 1
change.case$ -- 4
chr.to.int$ -- 0
cite$ -- 1
duplicate$ -- 21
empty$ -- 31
format.name$ -- 3
if$ -- 72
int.to.chr$ -- 0
int.to.str$ -- 1
missing$ -- 2
newline$ -- 8
num.names$ -- 2
pop$ -- 9
preamble$ -- 1
purify$ -- 3
quote$ -- 0
skip$ -- 15
stack$ -- 0
substring$ -- 5
swap$ -- 3
text.length$ -- 1
text.prefix$ -- 0
top$ -- 0
type$ -- 2
warning$ -- 0
while$ -- 2
width$ -- 2
write$ -- 14
is.kanji.str$ -- 12
